;*************************************************************
;*************************************************************
;**                                                         **
;**                          cos                            **
;**                                                         **
;*************************************************************
;*************************************************************
In: FL_SPCRES=0 FL_CPXRES=0 SD=0 RM=0 IM=2compl SS=4 WS=64
Func: fnCos



;=======================================
; cos(Long Integer) --> Real
;=======================================
In:  AM=DEG FL_ASLIFT=0 FL_CPXRES=0 RX=LonI:"5"
Out: EC=0 FL_CPXRES=0 FL_ASLIFT=1 RL=LonI:"5" RX=Real:"0.99619469809174553229501040247388804618356267264585097452544228"

In:  AM=DEG FL_ASLIFT=0 FL_CPXRES=0 RX=LonI:"3605"
Out: EC=0 FL_CPXRES=0 FL_ASLIFT=1 RL=LonI:"3605" RX=Real:"0.99619469809174553229501040247388804618356267264585097452544228"

In:  AM=DEG FL_ASLIFT=0 FL_CPXRES=0 RX=LonI:"-3595"
Out: EC=0 FL_CPXRES=0 FL_ASLIFT=1 RL=LonI:"-3595" RX=Real:"0.99619469809174553229501040247388804618356267264585097452544228"

In:  AM=DEG FL_ASLIFT=0 FL_CPXRES=0 RX=LonI:"3600000000000000000000000000000000000000000000000000000000000000000000005"
Out: EC=0 FL_CPXRES=0 FL_ASLIFT=1 RL=LonI:"3600000000000000000000000000000000000000000000000000000000000000000000005" RX=Real:"0.99619469809174553229501040247388804618356267264585097452544228"

In:  AM=DEG FL_ASLIFT=0 FL_CPXRES=0 RX=LonI:"-3599999999999999999999999999999999999999999999999999999999999999999999995"
Out: EC=0 FL_CPXRES=0 FL_ASLIFT=1 RL=LonI:"-3599999999999999999999999999999999999999999999999999999999999999999999995" RX=Real:"0.99619469809174553229501040247388804618356267264585097452544228"

In:  AM=RAD FL_ASLIFT=0 FL_CPXRES=0 RX=LonI:"84696780336000000000000000000000000000000000000000000000000000000000000000000000000000000000000000000000000000000000000000000000000000000"
Out: EC=0 FL_CPXRES=0 FL_ASLIFT=1 RL=LonI:"84696780336000000000000000000000000000000000000000000000000000000000000000000000000000000000000000000000000000000000000000000000000000000" RX=Real:"-5.714370521060907484280466201567459224412318233795e-12"



;=======================================
; cos(Time)
;=======================================



;=======================================
; cos(Date)
;=======================================



;=======================================
; cos(String) --> Error24
;=======================================
In:  FL_ASLIFT=0 RX=Stri:"String test"
Out: EC=24 FL_ASLIFT=0 RX=Stri:"String test"



;=======================================
; cos(Real Matrix)
;=======================================



;=======================================
; cos(Complex Matrix)
;=======================================



;=======================================
; cos(Short Integer) --> Error24
;=======================================
In:  FL_ASLIFT=0 FL_CPXRES=0 RX=ShoI:"5#7"
Out: EC=24 FL_CPXRES=0 FL_ASLIFT=0 RX=ShoI:"5#7"



;=======================================
; cos(Real) --> Real
;=======================================
In:  AM=DEG FL_ASLIFT=0 FL_CPXRES=0 RX=Real:"0.0001"
Out: EC=0 FL_CPXRES=0 FL_ASLIFT=1 RL=Real:"0.0001" RX=Real:"0.99999999999847691290106684363565143851321260875241094398227511"

In:  AM=GRAD FL_ASLIFT=0 FL_CPXRES=0 RX=Real:"50"
Out: EC=0 FL_CPXRES=0 FL_ASLIFT=1 RL=Real:"50" RX=Real:"0.70710678118654752440084436210484903928483593768847403658833987"

In:  AM=DEG FL_ASLIFT=0 FL_CPXRES=0 RX=Real:"89.999999999"
Out: EC=0 FL_CPXRES=0 FL_ASLIFT=1 RL=Real:"89.999999999" RX=Real:"1.7453292519943295769236021588730425836412730206781724e-11"

;In:  FL_ASLIFT=0 FL_CPXRES=0 RX=Real:"5.32564":DMS ;TODO this test fails
;Out: EC=0 FL_CPXRES=0 FL_ASLIFT=1 RL=Real:"5.32564":DMS RX=Real:"0.99531386599373835588896307783499595927830260734268166470002806"

In:  FL_ASLIFT=0 FL_CPXRES=0 RX=Real:"-5.32564":GRAD
Out: EC=0 FL_CPXRES=0 FL_ASLIFT=1 RL=Real:"-5.32564":GRAD RX=Real:"0.99650296415578380565836911498205848415864745303005676571207425"

In:  FL_ASLIFT=0 FL_CPXRES=0 RX=Real:"846967803360e125":RAD
Out: EC=0 FL_CPXRES=0 FL_ASLIFT=1 RL=Real:"846967803360e125":RAD RX=Real:"-5.714370521060907484280466201567459224412318233795e-12"

; NaN
In:  FL_ASLIFT=0 FL_CPXRES=0 RX=Real:"NaN":RAD
Out: EC=0 FL_CPXRES=0 FL_ASLIFT=1 RL=Real:"NaN":RAD RX=Real:"NaN"

In:  FL_ASLIFT=0 FL_CPXRES=0 RX=Real:"NaN"
Out: EC=0 FL_CPXRES=0 FL_ASLIFT=1 RL=Real:"NaN" RX=Real:"NaN"

; Infinity
In:  FL_ASLIFT=0 FL_CPXRES=0 FL_SPCRES=1 RX=Real:"inf":DEG
Out: EC=0 FL_CPXRES=0 FL_ASLIFT=1 RL=Real:"inf":DEG RX=Real:"NaN"

In:  FL_ASLIFT=0 FL_CPXRES=0 FL_SPCRES=0 RX=Real:"inf":MULTPI
Out: EC=0 FL_CPXRES=0 FL_ASLIFT=1 RL=Real:"inf":MULTPI RX=Real:"NaN"

In:  FL_ASLIFT=0 FL_CPXRES=0 FL_SPCRES=0 RX=Real:"-inf":RAD
Out: EC=0 FL_CPXRES=0 FL_ASLIFT=1 RL=Real:"-inf":RAD RX=Real:"NaN"

In:  FL_ASLIFT=0 FL_CPXRES=0 FL_SPCRES=1 RX=Real:"inf"
Out: EC=0 FL_CPXRES=0 FL_ASLIFT=1 RL=Real:"inf" RX=Real:"NaN"

In:  FL_ASLIFT=0 FL_CPXRES=0 FL_SPCRES=0 RX=Real:"inf"
Out: EC=0 FL_CPXRES=0 FL_ASLIFT=1 RL=Real:"inf" RX=Real:"NaN"

In:  FL_ASLIFT=0 FL_CPXRES=0 FL_SPCRES=0 RX=Real:"-inf"
Out: EC=0 FL_CPXRES=0 FL_ASLIFT=1 RL=Real:"-inf" RX=Real:"NaN"



;=======================================
; cos(Complex) --> Complex
;=======================================
In:  AM=DEG FL_ASLIFT=0 FL_CPXRES=0 RX=Cplx:"6.2 i -7.6"
Out: EC=0 FL_CPXRES=1 FL_ASLIFT=1 RL=Cplx:"6.2 i -7.6" RX=Cplx:"995.64341314558187357411737277837302155011897344854142611361842 i -83.014431027181725826838729440364848938377589146865824987490319"
